aniso8601==8.1.0
appdirs==1.4.4
attrs==20.3.0
certifi==2020.12.5
chardet==4.0.0
click==7.1.2
colorama==0.4.4
fire==0.3.1
Flask==1.1.2
Flask-Compressor==0.2.0
flask-restplus==0.9.2
idna==2.10
itsdangerous==1.1.0
Jinja2==2.11.2
jsonschema==3.2.0
MarkupSafe==1.1.1
numpy==1.19.5
pathspec==0.8.1
pipdate==0.3.1
PyBrain @ git+https://github.com/pybrain/pybrain.git@dcdf32ba1805490cefbc0bdeb227260d304fdb42
pyrsistent==0.17.3
pytz==2020.5
PyYAML==5.3.1
requests==2.25.1
scipy==1.6.0
six==1.15.0
structure==0.1.dev16
termcolor==1.1.0
tinynetrc==1.3.0
urllib3==1.26.2
Werkzeug==1.0.1
